MEPS_IBTS_2
…
MEPS_IBTS_2

Andrew Edwards

Analyses of IBTS data using the original eight methods

This vignette analyses the IBTS data using the original eight methods, without accounting for the bin structure.

library(sizeSpectra)
data = IBTS_data
data
#> # A tibble: 42,298 x 7
#>     Year SpecCode LngtClass  Number    LWa   LWb bodyMass
#>    <int>    <int>     <dbl>   <dbl>  <dbl> <dbl>    <dbl>
#>  1  1986   105814        45 0.00714 0.0031  3.03     315.
#>  2  1986   105814        46 0.00714 0.0031  3.03     337.
#>  3  1986   105814        50 0.00714 0.0031  3.03     434.
#>  4  1986   105814        52 0.0293  0.0031  3.03     489.
#>  5  1986   105814        53 0.0109  0.0031  3.03     518.
#>  6  1986   105814        54 0.0113  0.0031  3.03     548.
#>  7  1986   105814        56 0.0218  0.0031  3.03     612.
#>  8  1986   105814        57 0.0188  0.0031  3.03     646.
#>  9  1986   105814        58 0.0381  0.0031  3.03     680.
#> 10  1986   105814        59 0.0327  0.0031  3.03     717.
#> # ... with 42,288 more rows

Each row of data is a unique combination of year, species code and length class. The Number column is the number of observed individuals of that species in that length class in that year, bodyMass is the body mass of such an individual, and LWa and LWb are the length-weight coefficients, used to calculate bodyMass. To verify that each row is a unique combination of year, species code and length class:

data
#> # A tibble: 42,298 x 7
#>     Year SpecCode LngtClass  Number    LWa   LWb bodyMass
#>    <int>    <int>     <dbl>   <dbl>  <dbl> <dbl>    <dbl>
#>  1  1986   105814        45 0.00714 0.0031  3.03     315.
#>  2  1986   105814        46 0.00714 0.0031  3.03     337.
#>  3  1986   105814        50 0.00714 0.0031  3.03     434.
#>  4  1986   105814        52 0.0293  0.0031  3.03     489.
#>  5  1986   105814        53 0.0109  0.0031  3.03     518.
#>  6  1986   105814        54 0.0113  0.0031  3.03     548.
#>  7  1986   105814        56 0.0218  0.0031  3.03     612.
#>  8  1986   105814        57 0.0188  0.0031  3.03     646.
#>  9  1986   105814        58 0.0381  0.0031  3.03     680.
#> 10  1986   105814        59 0.0327  0.0031  3.03     717.
#> # ... with 42,288 more rows
…
