MEPS_IBTS_MLEbins
…
MEPS_IBTS_MLEbins

Andrew Edwards

Analyses of IBTS data using the MLEbins method

This vignette analyses the IBTS data using the MLEbins method that explicitly accounts for the species-specific body-mass bins.

Creates Figure 6 (and related Figures S.1, S.2 and S.3) showing species-specific body mass bins resulting from the length bins, Figure 8 (comparison of MLE and MLEbins values of b through time) and MLEbins row of Table S.1.

library(sizeSpectra)
library(tibble)  # Else prints all of a tibble
data = IBTS_data
data
#> # A tibble: 42,298 x 7
#>     Year SpecCode LngtClass  Number    LWa   LWb bodyMass
#>    <int>    <int>     <dbl>   <dbl>  <dbl> <dbl>    <dbl>
#>  1  1986   105814        45 0.00714 0.0031  3.03     315.
#>  2  1986   105814        46 0.00714 0.0031  3.03     337.
#>  3  1986   105814        50 0.00714 0.0031  3.03     434.
#>  4  1986   105814        52 0.0293  0.0031  3.03     489.
#>  5  1986   105814        53 0.0109  0.0031  3.03     518.
#>  6  1986   105814        54 0.0113  0.0031  3.03     548.
#>  7  1986   105814        56 0.0218  0.0031  3.03     612.
#>  8  1986   105814        57 0.0188  0.0031  3.03     646.
#>  9  1986   105814        58 0.0381  0.0031  3.03     680.
#> 10  1986   105814        59 0.0327  0.0031  3.03     717.
#> # ... with 42,288 more rows
…
# Need the standard error for weighted linear regression,
#  see eightMethods.count() for details:
MLEbins.nSeaFung.new = dplyr::tbl_df(MLEbins.nSeaFung.new)
MLEbins.nSeaFung.new = dplyr::mutate(MLEbins.nSeaFung.new,
                                     stdErr = (abs(confMin-b) +
                                               abs(confMax-b))/(2*1.96) )
MLEbins.nSeaFung.new
#> # A tibble: 30 x 8
#>     Year  xmin   xmax     n     b confMin confMax  stdErr
#>    <dbl> <dbl>  <dbl> <dbl> <dbl>   <dbl>   <dbl>   <dbl>
#>  1  1986  4.05 28723. 4799. -1.49   -1.50   -1.47 0.00791
#>  2  1987  4.16 25974. 6203. -1.53   -1.54   -1.51 0.00714
#>  3  1988  4.06 29440. 7712. -1.60   -1.62   -1.59 0.00714
#>  4  1989  4.06 35211. 7668. -1.55   -1.56   -1.54 0.00663
#>  5  1990  4.05 34811. 6400. -1.52   -1.53   -1.50 0.00714
#>  6  1991  4.06 26413. 6640. -1.49   -1.50   -1.48 0.00663
#>  7  1992  4.05 25317. 7973. -1.53   -1.54   -1.52 0.00663
#>  8  1993  4.16 29440. 8628. -1.49   -1.50   -1.48 0.00587
#>  9  1994  4.16 22201. 6283. -1.52   -1.53   -1.50 0.00714
#> 10  1995  4.16 31819. 9402. -1.62   -1.64   -1.61 0.00663
#> # ... with 20 more rows
…
