MEPS_IBTS_1
…
Note that data will change a lot in the following code.

data = sizeSpectra::s_select(dataOrig, colsKeep)   # uses Sebastian Kranz's s_dplyr_funcs.r
data
#> # A tibble: 178,435 × 8
#>     Year AphiaID LngtClas CPUE_number_per_hour      a     b weight_g CPUE_bio_…¹
#>    <int>   <int>    <int>                <dbl>  <dbl> <dbl>    <dbl>       <dbl>
#>  1  2003  101170      360               0.0556 0.0033  2.70     52.4       2.91 
#>  2  2008  101170        0               0      0.0033  2.70      0         0    
#>  3  2004  101170        0               0      0.0033  2.70      0         0    
#>  4  2004  101170      330               0.0244 0.0033  2.70     41.4       1.01 
#>  5  2013  101170      330               0.0909 0.0033  2.70     41.4       3.76 
#>  6  2013  101170        0               0      0.0033  2.70      0         0    
#>  7  2003  101170        0               0      0.0033  2.70      0         0    
#>  8  2012  101170      250               0.04   0.0033  2.70     19.6       0.783
#>  9  1999  101170        0               0      0.0033  2.70      0         0    
#> 10  2003  101170      290               0.0972 0.0033  2.70     29.2       2.84 
#> # … with 178,425 more rows, and abbreviated variable name ¹​CPUE_bio_per_hour
…
Make cm not mm:

data$LngtClass = data$LngtClass/10

Rearrange the order to be more intuitive:

data = dplyr::arrange(data, Year, SpecCode, LngtClass)
data
#> # A tibble: 178,435 × 8
#>     Year SpecCode LngtClass Number    LWa   LWb bodyMass CPUE_bio_per_hour
#>    <int>    <int>     <dbl>  <dbl>  <dbl> <dbl>    <dbl>             <dbl>
#>  1  1986   105814         0      0 0.0031  3.03        0                 0
#>  2  1986   105814         0      0 0.0031  3.03        0                 0
#>  3  1986   105814         0      0 0.0031  3.03        0                 0
#>  4  1986   105814         0      0 0.0031  3.03        0                 0
#>  5  1986   105814         0      0 0.0031  3.03        0                 0
#>  6  1986   105814         0      0 0.0031  3.03        0                 0
#>  7  1986   105814         0      0 0.0031  3.03        0                 0
#>  8  1986   105814         0      0 0.0031  3.03        0                 0
#>  9  1986   105814         0      0 0.0031  3.03        0                 0
#> 10  1986   105814         0      0 0.0031  3.03        0                 0
#> # … with 178,425 more rows
…
So, yes, we have multiple counts of 60cm fish of this species, which we can just aggregate together. Do this for all years, species and lengths:

data = dplyr::summarise(dplyr::group_by(data,
                                        Year,
                                        SpecCode,
                                        LngtClass),
                        "Number" = sum(Number)/numAreas,
                        "LWa" = unique(LWa),
                        "LWb" = unique(LWb),
                        "bodyMass" = unique(bodyMass))
#> `summarise()` has grouped output by 'Year', 'SpecCode'. You can override using
#> the `.groups` argument.
data
#> # A tibble: 49,191 × 7
#> # Groups:   Year, SpecCode [2,550]
#>     Year SpecCode LngtClass  Number    LWa   LWb bodyMass
#>    <int>    <int>     <dbl>   <dbl>  <dbl> <dbl>    <dbl>
#>  1  1986   105814         0 0       0.0031  3.03     0   
#>  2  1986   105814        10 0.0571  0.0031  3.03     3.31
#>  3  1986   105814        45 0.00714 0.0031  3.03   315.  
#>  4  1986   105814        46 0.00714 0.0031  3.03   337.  
#>  5  1986   105814        50 0.00714 0.0031  3.03   434.  
#>  6  1986   105814        52 0.0293  0.0031  3.03   489.  
#>  7  1986   105814        53 0.0109  0.0031  3.03   518.  
#>  8  1986   105814        54 0.0113  0.0031  3.03   548.  
#>  9  1986   105814        56 0.0218  0.0031  3.03   612.  
#> 10  1986   105814        57 0.0188  0.0031  3.03   646.  
#> # … with 49,181 more rows
…
Now only include body-mass classes above 4 g, following Blanchard et al. (2005), since data are unreliable for smaller organisms:

range(data$LngtClass)
#> [1]   0 150
range(data$bodyMass)
#> [1]     0.00 35630.04
sum(data$bodyMass == 0)   # 2549
#> [1] 2549
sum(data$bodyMass < 4 )   # 6893
#> [1] 6893
data = dplyr::filter(data, bodyMass >= 4)
range(data$bodyMass)
#> [1]     4.045665 35630.037377
data
#> # A tibble: 42,298 × 7
#> # Groups:   Year, SpecCode [2,182]
#>     Year SpecCode LngtClass  Number    LWa   LWb bodyMass
#>    <int>    <int>     <dbl>   <dbl>  <dbl> <dbl>    <dbl>
#>  1  1986   105814        45 0.00714 0.0031  3.03     315.
#>  2  1986   105814        46 0.00714 0.0031  3.03     337.
#>  3  1986   105814        50 0.00714 0.0031  3.03     434.
#>  4  1986   105814        52 0.0293  0.0031  3.03     489.
#>  5  1986   105814        53 0.0109  0.0031  3.03     518.
#>  6  1986   105814        54 0.0113  0.0031  3.03     548.
#>  7  1986   105814        56 0.0218  0.0031  3.03     612.
#>  8  1986   105814        57 0.0188  0.0031  3.03     646.
#>  9  1986   105814        58 0.0381  0.0031  3.03     680.
#> 10  1986   105814        59 0.0327  0.0031  3.03     717.
#> # … with 42,288 more rows
…
The 0.5-cm length classes are only for two species, Atlantic Herring (code 126417) and European Sprat (code 126425), as confirmed here (no differences of 0.5cm):

temp = dplyr::filter(data, !(SpecCode %in% c(126417, 126425)))
unique(diff(sort(unique(temp$LngtClass))))
#> [1] 1 3 2

Aside – species names and codes are in specCodeNames (though it needs updating as more species in the data than listed here):

specCodeNames
#> # A tibble: 111 × 2
#>    species             speccode
#>    <fct>                  <int>
#>  1 Agonus cataphractus   127190
#>  2 Alosa alosa           126413
#>  3 Alosa fallax          126415
#>  4 Amblyraja radiata     105865
#>  5 Ammodytes marinus     126751
#>  6 Ammodytidae           125516
#>  7 Anarhichas lupus      126758
#>  8 Argentina silus       126715
#>  9 Argentina sphyraena   126716
#> 10 Arnoglossus           126109
#> # … with 101 more rows
…
