MEPS_IBTS_all_min_100.utf8.md
…
Now, instead of only including body-mass classes above 4 g (which we did following Blanchard et al., 2005), we set the cut-off to be 100 g to see if the larger fish are fit well with the bounded power-law fit only to the larger fish:

range(data$LngtClass)
#> [1]   0 150
range(data$bodyMass)
#> [1]     0.00 35630.04
sum(data$bodyMass == 0)
#> [1] 2549
sum(data$bodyMass < 100 )
#> [1] 21781
data = dplyr::filter(data, bodyMass >= 100)
range(data$bodyMass)
#> [1]   100.00 35630.04
data
#> # A tibble: 27,410 x 7
#> # Groups:   Year, SpecCode [1,423]
#>     Year SpecCode LngtClass  Number    LWa   LWb bodyMass
#>    <int>    <int>     <dbl>   <dbl>  <dbl> <dbl>    <dbl>
#>  1  1986   105814        45 0.00714 0.0031  3.03     315.
#>  2  1986   105814        46 0.00714 0.0031  3.03     337.
#>  3  1986   105814        50 0.00714 0.0031  3.03     434.
#>  4  1986   105814        52 0.0293  0.0031  3.03     489.
#>  5  1986   105814        53 0.0109  0.0031  3.03     518.
#>  6  1986   105814        54 0.0113  0.0031  3.03     548.
#>  7  1986   105814        56 0.0218  0.0031  3.03     612.
#>  8  1986   105814        57 0.0188  0.0031  3.03     646.
#>  9  1986   105814        58 0.0381  0.0031  3.03     680.
#> 10  1986   105814        59 0.0327  0.0031  3.03     717.
#> # ... with 27,400 more rows
…
# Need the standard error for weighted linear regression,
#  see eightMethods.count() for details:
MLEbins.nSeaFung.new = dplyr::tbl_df(MLEbins.nSeaFung.new)
MLEbins.nSeaFung.new = dplyr::mutate(MLEbins.nSeaFung.new,
                                     stdErr = (abs(confMin-b) +
                                               abs(confMax-b))/(2*1.96) )
MLEbins.nSeaFung.new
#> # A tibble: 30 x 8
#>     Year  xmin   xmax     n     b confMin confMax stdErr
#>    <dbl> <dbl>  <dbl> <dbl> <dbl>   <dbl>   <dbl>  <dbl>
#>  1  1986  101. 28723.  917. -2.34   -2.43   -2.26 0.0449
#>  2  1987  100  25974.  849. -2.48   -2.58   -2.38 0.0510
#>  3  1988  102. 29440.  983. -2.83   -2.95   -2.72 0.0584
#>  4  1989  102. 35211. 1058. -2.69   -2.79   -2.59 0.0520
#>  5  1990  102. 34811.  830. -2.66   -2.77   -2.55 0.0574
#>  6  1991  100  26413. 1076. -2.82   -2.93   -2.72 0.0556
#>  7  1992  100  25317. 1102. -2.82   -2.93   -2.71 0.0546
#>  8  1993  100. 29440. 1122. -2.47   -2.56   -2.38 0.0441
#>  9  1994  102. 22201.  973. -2.97   -3.10   -2.85 0.0633
#> 10  1995  102. 31819.  937. -2.67   -2.78   -2.57 0.0546
#> # ... with 20 more rows
…
